…
    ## Calculating cluster 13

    ## Calculating cluster 14

    ## Calculating cluster 15

``` r
#Extract top 3 markers for each cluster based on avg log2 fold change
top_markers <- new_object.markers %>% 
    group_by(cluster) %>%
    slice_max(n = 5, order_by = avg_log2FC)
print(top_markers)
```

    ## # A tibble: 80 × 7
    ## # Groups:   cluster [16]
    ##    p_val avg_log2FC pct.1 pct.2 p_val_adj cluster gene   
    ##    <dbl>      <dbl> <dbl> <dbl>     <dbl> <fct>   <chr>  
    ##  1     0       5.31 0.29  0.01          0 0       CTLA4  
    ##  2     0       4.78 0.415 0.032         0 0       FAAH2  
    ##  3     0       4.58 0.418 0.019         0 0       CD28   
    ##  4     0       4.46 0.256 0.024         0 0       RTKN2  
    ##  5     0       4.32 0.567 0.034         0 0       ICOS   
    ##  6     0       5.67 0.253 0.012         0 1       PLA2G2A
    ##  7     0       5.11 0.576 0.039         0 1       C3     
    ##  8     0       4.36 0.838 0.141         0 1       APOD   
    ##  9     0       4.13 0.638 0.07          0 1       PTGDS  
    ## 10     0       3.86 0.427 0.035         0 1       ABCA8  
    ## # ℹ 70 more rows
…
